{
  "base_url": "/",
  "hostname": "172.19.0.2",
  "notebook_dir": "/home/datascience",
  "password": false,
  "pid": 91,
  "port": 8888,
  "secure": false,
  "sock": "",
  "token": "",
  "url": "http://172.19.0.2:8888/"
}